Hl,Hw,P,Cmin,Cmax,C,V,VX,Condition,NG,NR,Nplayers,ID,age,gender,G,MAP,R,NOpenDiscoveries1,NOpenDiscoveries2,NOpenDiscoveries3,IDOpenDiscoveries1,IDOpenDiscoveries2,IDOpenDiscoveries3,IDSelfOpenDiscoveries,Hive,Hexagon,Order,Extra,Yellow,Red,Payoff
30,70,0.05,10,30,20,60,300,No Patent,1,3,2,2352,2352,1,1,1,1,0,0,0,.,.,.,.,1,(10-13),0,0,0,0,-20
30,70,0.05,10,30,15,60,300,No Patent,1,3,2,2352,2352,1,1,1,2,0,0,0,.,.,.,.,1,(4-10),0,0,0,0,-15
30,70,0.05,10,30,15,60,300,No Patent,1,3,2,2352,2352,1,1,1,3,0,0,0,.,.,.,.,1,(1-23),0,0,0,0,-15

Date,2019-02-20 10:13:21

Show up,20
Reward,-20
Total,18