0000001000000000000000000000000000000000000100000000000000000000000000
0000000110000000000000110000000000000000000110000000000000000000000110
0000000010000000000000100001100100000000000000000000000000000000000010
1000010000000000000000000000100110000000000000000000000000000000000000
0110011000000000001100001101000001100000000000000000000000000000000110
0010000000000000001000001001100000100000000000001100000000000000000010
0000000001000000000011000000000001000110000011001000000000000000000000
0000000001100000000010000000000001100010000010000011000000000000000000
0000000000000110000000000000000000000100000000000010000000000000000000
0000110000110010000000000000000000000110000000000000010000000000000000
0100100000100000000000010000000000000000010000000000110000000000000100
1100000000000000000000110000000000000000011000000000000000000000000110
0001100000000000000000000001100000000000000000000000000000000000000000
0100100000000000000101000000101100000000000000000000000001000000000000
1100000000000000001101100000001000000000000001000001100001100000000000
0000000000000000000000000000000000000000000001100000100000000000000000
0001000000000000000000000000000000000000000000000001000000000000000000
1011000000011000000000000000000000000000001100000011000000000000010000
1000000000001000000000000000000000000000001000000000000000000000110000
0000000000000000000000000000000000000100000000000000000000000011000000
0000000000000001000110000000000000000110000000110000000000000010000000
0000011000000011000010110001000000000000010000100000000000000000000000
0000001000000000000100100001100000000000110000000000000000000000000000
0100000000011000000110000000000000000000000000000000000000000000011000
0110000000001000000000000000000000000000000000000011000000000000001000
0000000000000000000001100000010000000000000000000010000000000000000000
0100000000000000000000100000011000000100000000000001000100000000000000
0110000000000000000000000100000000000110001100000011001100000000000000
0000000000000000000000001100010000000000001000000000000000000110000000
0000000000000000000000000000011001010000000000000011010000000010000000