Hl,Hw,P,Cmin,Cmax,C,V,VX,Condition,NG,NR,Nplayers,ID,age,gender,G,MAP,R,NOpenDiscoveries1,NOpenDiscoveries2,NOpenDiscoveries3,IDOpenDiscoveries1,IDOpenDiscoveries2,IDOpenDiscoveries3,IDSelfOpenDiscoveries,Hive,Hexagon,Order,Extra,Yellow,Red,Payoff
30,70,0.05,10,30,30,60,300,Singleton,1,3,2,221256115,71,1,1,1,1,0,0,0,.,.,.,.,2,(1-4),1,1,0,0,280
30,70,0.05,10,30,20,60,300,Singleton,1,3,2,221256115,71,1,1,1,2,1,0,0,(1-4),.,.,(1-4),1,(4-12),0,0,1,0,-20
30,70,0.05,10,30,20,60,300,Singleton,1,3,2,221256115,71,1,1,1,3,1,0,0,(1-4),.,.,(1-4),1,(6-20),0,0,1,0,-30

Date,2019-01-30 17:03:28

Show up,20
Reward,270
Total,47