Hl,Hw,P,Cmin,Cmax,C,V,VX,Condition,NG,NR,Nplayers,ID,age,gender,G,MAP,R,NOpenDiscoveries1,NOpenDiscoveries2,NOpenDiscoveries3,IDOpenDiscoveries1,IDOpenDiscoveries2,IDOpenDiscoveries3,IDSelfOpenDiscoveries,Hive,Hexagon,Order,Extra,Yellow,Red,Payoff
30,70,0.05,10,30,20,60,300,Singleton,2,3,2,112256498,3,1,1,1,1,0,0,0,.,.,.,.,1,(1-9),0,0,0,0,-20
30,70,0.05,10,30,25,60,300,Singleton,2,3,2,112256498,3,1,1,1,2,0,0,0,.,.,.,.,1,(8-19),0,0,0,0,-25
30,70,0.05,10,30,30,60,300,Singleton,2,3,2,112256498,3,1,1,1,3,0,0,0,.,.,.,.,1,(2-15),0,0,0,0,-30
30,70,0.05,10,30,10,60,300,Singleton,2,3,2,112256498,3,1,2,10,1,0,0,0,.,.,.,.,1,(3-8),0,0,0,0,-10
30,70,0.05,10,30,30,60,300,Singleton,2,3,2,112256498,3,1,2,10,2,0,0,0,.,.,.,.,1,(10-18),0,0,0,0,-30
30,70,0.05,10,30,10,60,300,Singleton,2,3,2,112256498,3,1,2,10,3,0,0,0,.,.,.,.,1,(10-8),0,0,0,0,-10

Date,2019-01-30 17:21:22

Show up,20
Reward,-10
Total,19