0000000000110000100000000000000000000000000000000000001100110000000000
0000000000100000000000000000000000000000000000000000000000000000000000
0000000000000000000000000000000000000000000000110000000000000000000000
0000000000010100000000000000000000000000000000100000000000010000000000
0000000000110110000000000000000000000000000000000100000000011000000000
0000000000000000000000000000000000000000000000001100000100000000000000
0000000000000000000000000000000000000000000000000000000110000000000000
0011000000000110000000000000000000000000000000000000000000000000000011
0010000000000010000000000000000000000000000000000000000000000000000010
0000000000000000000000000000000000000000000000000000000000000000000000
0000000000110000110000000000000000000000000000000000000000000000000000
0000000000100000100000000000000000000000000000000000000000000000000000
0000000000000000000000000000000000000000000000000000001100110000000000
0000000000000000000000000000000000000000000000000000001000100000000000
0000000000000000000000000000000000000000000000000000000000000000000000
0100010000000000000000000001100000000000000000000000000000000000000000
0110011000000000000000000000100000000000000000000000000000000000000001
0000000000000100000000000000000000000000000000110000000000000000000001
1000000000001100000000000000000000000000000000100000000000000000000000
1000000000000000000000000000000000000000000000000000000000000000000100
0000000000000000000000000000000000000000000000000000000000000000001101
0000000000000000000000000000000000000000000000000000000000000000000001
0000000001100000000000000000000000000000000000000000000000000000000000
0000000000100000000000000000000000000100000000000000000000000000000000
0000000000000000000000000001000000000110000000000000000000000000000000
0100000000000000000000000001100000000000000000000000000000000001100000
1100000001000000000000000000000000000000000001000000000000000000100000
0000000011000000000000000000000000000000000011000000000000000000000000
0000000000011000000000000000000000000000000000010000000000000000000000
0110000000001000000000000000011000000000000000110000110000010000000000