Hl,Hw,P,Cmin,Cmax,C,V,VX,Condition,NG,NR,Nplayers,ID,age,gender,G,MAP,R,NOpenDiscoveries1,NOpenDiscoveries2,NOpenDiscoveries3,IDOpenDiscoveries1,IDOpenDiscoveries2,IDOpenDiscoveries3,IDSelfOpenDiscoveries,Hive,Hexagon,Order,Extra,Yellow,Red,Payoff
30,70,0.05,10,30,30,60,300,Singleton,1,3,2,1414,1414,1,1,1,1,0,0,0,.,.,.,.,1,(9-14),0,0,0,0,-30
30,70,0.05,10,30,25,60,300,Singleton,1,3,2,1414,1414,1,1,1,2,0,0,0,.,.,.,.,1,(3-8),0,0,0,0,-25
30,70,0.05,10,30,35,60,300,Singleton,1,3,2,1414,1414,1,1,1,3,0,0,0,.,.,.,.,1,(5-16),0,0,0,0,-35

Date,2019-02-20 10:13:21

Show up,20
Reward,-35
Total,17