Hl,Hw,P,Cmin,Cmax,C,V,VX,Condition,NG,NR,Nplayers,ID,age,gender,G,MAP,R,NOpenDiscoveries1,NOpenDiscoveries2,NOpenDiscoveries3,IDOpenDiscoveries1,IDOpenDiscoveries2,IDOpenDiscoveries3,IDSelfOpenDiscoveries,Hive,Hexagon,Order,Extra,Yellow,Red,Payoff
30,70,0.05,10,30,5,60,300,Singleton,1,3,2,2222,444,1,1,1,1,0,0,0,.,.,.,.,1,(6-10),0,0,0,0,-5
30,70,0.05,10,30,5,60,300,Singleton,1,3,2,2222,444,1,1,1,2,0,0,0,.,.,.,.,1,(8-13),0,0,0,0,-5
30,70,0.05,10,30,20,60,300,Singleton,1,3,2,2222,444,1,1,1,3,0,0,0,.,.,.,.,1,(2-15),0,0,0,0,-20

Date,2019-02-20 10:13:21

Show up,20
Reward,-5
Total,20