Hl,Hw,P,Cmin,Cmax,C,V,VX,Condition,NG,NR,Nplayers,ID,age,gender,G,MAP,R,NOpenDiscoveries1,NOpenDiscoveries2,NOpenDiscoveries3,IDOpenDiscoveries1,IDOpenDiscoveries2,IDOpenDiscoveries3,IDSelfOpenDiscoveries,Hive,Hexagon,Order,Extra,Yellow,Red,Payoff
30,70,0.05,10,30,5,60,300,Singleton,1,3,2,64564,45645,1,1,1,1,0,0,0,.,.,.,.,1,(7-23),0,0,0,0,-5
30,70,0.05,10,30,35,60,300,Singleton,1,3,2,64564,45645,1,1,1,2,0,0,0,.,.,.,.,1,(10-14),0,0,0,0,-35
30,70,0.05,10,30,15,60,300,Singleton,1,3,2,64564,45645,1,1,1,3,0,0,0,.,.,.,.,0,.,.,.,0,0,0

Date,2019-02-20 10:33:10

Show up,20
Reward,-35
Total,17