Hl,Hw,P,Cmin,Cmax,C,V,VX,Condition,NG,NR,Nplayers,ID,age,gender,G,MAP,R,NOpenDiscoveries1,NOpenDiscoveries2,NOpenDiscoveries3,IDOpenDiscoveries1,IDOpenDiscoveries2,IDOpenDiscoveries3,IDSelfOpenDiscoveries,Hive,Hexagon,Order,Extra,Yellow,Red,Payoff
30,70,0.05,10,30,10,60,300,Singleton,1,3,2,23523,23523,1,1,1,1,0,0,0,.,.,.,.,0,.,.,.,0,0,0
30,70,0.05,10,30,15,60,300,Singleton,1,3,2,23523,23523,1,1,1,2,0,0,0,.,.,.,.,1,(7-22),0,0,0,0,-15
30,70,0.05,10,30,10,60,300,Singleton,1,3,2,23523,23523,1,1,1,3,0,0,0,.,.,.,.,1,(8-20),0,0,0,0,-10

Date,2019-02-20 10:16:13

Show up,20
Reward,-10
Total,19