Hl,Hw,P,Cmin,Cmax,C,V,VX,Condition,NG,NR,Nplayers,ID,age,gender,G,MAP,R,NOpenDiscoveries1,NOpenDiscoveries2,NOpenDiscoveries3,IDOpenDiscoveries1,IDOpenDiscoveries2,IDOpenDiscoveries3,IDSelfOpenDiscoveries,Hive,Hexagon,Order,Extra,Yellow,Red,Payoff
30,70,0.05,10,30,30,60,300,Patent,2,3,2,20821254,8,0,1,1,1,0,0,0,.,.,.,.,2,(1-4),1,0,0,0,-30
30,70,0.05,10,30,30,60,300,Patent,2,3,2,20821254,8,0,1,1,2,1,0,0,(1-4),.,.,.,1,(3-9),0,0,0,1,-30
30,70,0.05,10,30,30,60,300,Patent,2,3,2,20821254,8,0,1,1,3,0,1,0,.,(1-5) (1-4),.,.,1,(10-18),0,0,0,2,-30
30,70,0.05,10,30,15,60,300,Patent,2,3,2,20821254,8,0,2,6,1,0,0,0,.,.,.,.,1,(6-6),0,0,0,2,-15
30,70,0.05,10,30,5,60,300,Patent,2,3,2,20821254,8,0,2,6,2,0,0,0,.,.,.,.,1,(0-3),0,0,0,2,-5
30,70,0.05,10,30,15,60,300,Patent,2,3,2,20821254,8,0,2,6,3,1,0,0,(10-17),.,.,.,1,(11-17),0,0,0,3,-15

Date,2019-01-30 17:23:35

Show up,20
Reward,-15
Total,19