Hl,Hw,P,Cmin,Cmax,C,V,VX,Condition,NG,NR,Nplayers,ID,age,gender,G,MAP,R,NOpenDiscoveries1,NOpenDiscoveries2,NOpenDiscoveries3,IDOpenDiscoveries1,IDOpenDiscoveries2,IDOpenDiscoveries3,IDSelfOpenDiscoveries,Hive,Hexagon,Order,Extra,Yellow,Red,Payoff
30,70,0.05,10,30,15,60,300,Patent,2,3,2,236086919,28,1,1,1,1,0,0,0,.,.,.,.,2,(1-4),1,1,0,0,285
30,70,0.05,10,30,20,60,300,Patent,2,3,2,236086919,28,1,1,1,2,1,0,0,(1-4),.,.,(1-4),2,(1-5),2,0,1,0,40
30,70,0.05,10,30,15,60,300,Patent,2,3,2,236086919,28,1,1,1,3,0,1,0,.,(1-5) (1-4),.,(1-4) (1-5),1,(12-7),0,0,2,0,-15
30,70,0.05,10,30,25,60,300,Patent,2,3,2,236086919,28,1,2,6,1,0,0,0,.,.,.,.,1,(7-8),0,0,2,0,-25
30,70,0.05,10,30,25,60,300,Patent,2,3,2,236086919,28,1,2,6,2,0,0,0,.,.,.,.,2,(10-17),1,1,2,0,275
30,70,0.05,10,30,30,60,300,Patent,2,3,2,236086919,28,1,2,6,3,1,0,0,(10-17),.,.,(10-17),1,(4-17),0,0,3,0,-30

Date,2019-01-30 17:23:35

Show up,20
Reward,275
Total,48