Hl,Hw,P,Cmin,Cmax,C,V,VX,Condition,NG,NR,Nplayers,ID,age,gender,G,MAP,R,NOpenDiscoveries1,NOpenDiscoveries2,NOpenDiscoveries3,IDOpenDiscoveries1,IDOpenDiscoveries2,IDOpenDiscoveries3,IDSelfOpenDiscoveries,Hive,Hexagon,Order,Extra,Yellow,Red,Payoff
30,70,0.05,10,30,25,60,300,Singleton,1,3,2,235,235,1,1,1,1,0,0,0,.,.,.,.,1,(2-6),0,0,0,0,-5

Date,2019-01-30 16:56:16

Show up,20
Reward,-25
Total,18