Hl,Hw,P,Cmin,Cmax,C,V,VX,Condition,NG,NR,Nplayers,ID,age,gender,G,MAP,R,NOpenDiscoveries1,NOpenDiscoveries2,NOpenDiscoveries3,IDOpenDiscoveries1,IDOpenDiscoveries2,IDOpenDiscoveries3,IDSelfOpenDiscoveries,Hive,Hexagon,Order,Extra,Yellow,Red,Payoff
30,70,0.05,10,30,15,60,300,Patent,3,3,3,40963283,21,1,1,1,1,0,0,0,.,.,.,.,1,(5-28),0,0,0,0,-15
30,70,0.05,10,30,5,60,300,Patent,3,3,3,40963283,21,1,1,1,2,0,0,0,.,.,.,.,2,(7-38),1,1,0,0,295
30,70,0.05,10,30,30,60,300,Patent,3,3,3,40963283,21,1,1,1,3,2,0,0,(10-39) (7-38),.,.,(7-38),1,(11-40),0,0,1,1,30
30,70,0.05,10,30,10,60,300,Patent,3,3,3,40963283,21,1,2,3,1,0,0,0,.,.,.,.,2,(1-4),1,0,2,1,-10
30,70,0.05,10,30,20,60,300,Patent,3,3,3,40963283,21,1,2,3,2,1,0,0,(1-4),.,.,.,2,(0-3),3,0,2,2,-20
30,70,0.05,10,30,30,60,300,Patent,3,3,3,40963283,21,1,2,3,3,0,0,1,.,.,(0-3) (1-4) (1-3),.,1,(14-18),0,0,2,4,-30
30,70,0.05,10,30,35,60,300,Patent,3,3,3,40963283,21,1,3,3,1,0,0,0,.,.,.,.,1,(2-21),0,0,2,4,-35
30,70,0.05,10,30,30,60,300,Patent,3,3,3,40963283,21,1,3,3,2,0,0,0,.,.,.,.,1,(12-12),0,0,2,4,-30
30,70,0.05,10,30,15,60,300,Patent,3,3,3,40963283,21,1,3,3,3,0,0,0,.,.,.,.,1,(7-20),0,0,2,4,-15

Date,2019-01-31 07:51:01

Show up,20
Reward,295
Total,50