Hl,Hw,P,Cmin,Cmax,C,V,VX,Condition,NG,NR,Nplayers,ID,age,gender,G,MAP,R,NOpenDiscoveries1,NOpenDiscoveries2,NOpenDiscoveries3,IDOpenDiscoveries1,IDOpenDiscoveries2,IDOpenDiscoveries3,IDSelfOpenDiscoveries,Hive,Hexagon,Order,Extra,Yellow,Red,Payoff
30,70,0.05,10,30,25,60,300,Patent,3,3,3,80626454,68,1,1,1,1,0,0,0,.,.,.,.,1,(3-19),0,0,0,0,-25
30,70,0.05,10,30,5,60,300,Patent,3,3,3,80626454,68,1,1,1,2,0,0,0,.,.,.,.,2,(10-39),1,1,0,0,295
30,70,0.05,10,30,30,60,300,Patent,3,3,3,80626454,68,1,1,1,3,2,0,0,(10-39) (7-38),.,.,(10-39),2,(7-37),2,0,1,1,-30
30,70,0.05,10,30,10,60,300,Patent,3,3,3,80626454,68,1,2,3,1,0,0,0,.,.,.,.,1,(1-5),0,0,1,2,-10
30,70,0.05,10,30,25,60,300,Patent,3,3,3,80626454,68,1,2,3,2,1,0,0,(1-4),.,.,.,2,(1-3),2,0,1,3,-25
30,70,0.05,10,30,15,60,300,Patent,3,3,3,80626454,68,1,2,3,3,0,0,1,.,.,(0-3) (1-4) (1-3),.,1,(10-26),0,0,1,5,-15
30,70,0.05,10,30,15,60,300,Patent,3,3,3,80626454,68,1,3,3,1,0,0,0,.,.,.,.,1,(1-5),0,0,1,5,-15
30,70,0.05,10,30,25,60,300,Patent,3,3,3,80626454,68,1,3,3,2,0,0,0,.,.,.,.,1,(7-13),0,0,1,5,-25
30,70,0.05,10,30,25,60,300,Patent,3,3,3,80626454,68,1,3,3,3,0,0,0,.,.,.,.,1,(9-22),0,0,1,5,-25

Date,2019-01-31 07:51:01

Show up,20
Reward,295
Total,50